appdirs==1.4.3
colorama==0.3.7
Django==1.9.4
et-xmlfile==1.0.1
ftputil==2.2.3
future==0.15.2
geopy==1.11.0
image==1.4.4
jdcal==1.3
numpy==1.11.0
openpyxl==2.4.5
packaging==16.8
pefile==2016.3.28
Pillow==3.1.1
py2exe==0.9.2.2
PyAutoGUI==0.9.33
PyInstaller==3.2
PyMsgBox==1.0.3
pyparsing==2.2.0
pyperclip==1.5.27
pypiwin32==219
PyTweening==1.0.3
selenium==2.53.5
six==1.10.0
tqdm==4.8.1
virtualenv==15.0.2
wget==3.2
xlrd==1.0.0
XlsxWriter==0.9.6
xlutils==2.0.0
xlwt==1.2.0
